<svg width="50" height="50" viewBox="0 0 50 50" fill="none" xmlns="http://www.w3.org/2000/svg">
<circle cx="25" cy="25" r="25" fill="#05028D"/>
<g clip-path="url(#clip0)">
<path d="M36.4619 31.967L32.7555 28.2602C32.0173 27.5249 30.7947 27.5473 30.0307 28.3115L28.1634 30.1784C28.0455 30.1134 27.9233 30.0455 27.795 29.9734C26.6158 29.32 25.0019 28.4245 23.3035 26.725C21.6002 25.0218 20.7038 23.4054 20.0485 22.2255C19.9793 22.1005 19.913 21.9799 19.8476 21.8655L21.1009 20.6141L21.717 19.9972C22.4821 19.2319 22.5032 18.0096 21.7667 17.2722L18.0603 13.565C17.3238 12.8286 16.1006 12.8509 15.3355 13.6163L14.2909 14.6669L14.3195 14.6952C13.9692 15.1421 13.6765 15.6576 13.4587 16.2135C13.2579 16.7426 13.1329 17.2475 13.0757 17.7535C12.5863 21.8108 14.4404 25.5189 19.4721 30.5507C26.4275 37.5055 32.0326 36.9801 32.2744 36.9545C32.801 36.8915 33.3057 36.7657 33.8187 36.5665C34.3697 36.3512 34.8848 36.059 35.3315 35.7094L35.3543 35.7297L36.4126 34.6935C37.1761 33.9283 37.1981 32.7056 36.4619 31.967Z" fill="white"/>
</g>
<defs>
<clipPath id="clip0">
<rect width="24" height="24" fill="white" transform="translate(13 13)"/>
</clipPath>
</defs>
</svg>
