<svg width="30" height="30" viewBox="0 0 30 30" fill="none" xmlns="http://www.w3.org/2000/svg">
<path fill-rule="evenodd" clip-rule="evenodd" d="M14.4077 0.932649L15 0L15.5923 0.932649L20.8262 9.17383L29.0674 14.4077L30 15L29.0674 15.5923L20.8262 20.8262L15.5923 29.0674L15 30L14.4077 29.0674L9.17383 20.8262L0.932649 15.5923L0 15L0.932649 14.4077L9.17383 9.17383L14.4077 0.932649ZM11.1592 22.0871L15 28.1347L18.8408 22.0871L16 23.8912L15 24.5263L14 23.8912L11.1592 22.0871ZM22.0871 18.8408L28.1347 15L22.0871 11.1592L23.8912 14L24.5263 15L23.8912 16L22.0871 18.8408ZM5.47372 15L6.10881 16L7.91293 18.8408L1.8653 15L7.91293 11.1592L6.10881 14L5.47372 15ZM20.1017 20.1017L16 22.7066V16H22.7066L20.1017 20.1017ZM14 16V22.7066L9.89834 20.1017L7.29343 16H14ZM15 1.8653L18.8408 7.91293L16 6.10881L15 5.47372L14 6.10881L11.1592 7.91293L15 1.8653ZM22.7066 14L20.1017 9.89833L16 7.29343V14H22.7066ZM14 14H7.29343L9.89834 9.89834L14 7.29343V14Z" fill="#FFB600" fill-opacity="0.6"/>
</svg>
