<svg width="76" height="25" viewBox="0 0 76 25" fill="none" xmlns="http://www.w3.org/2000/svg">
<path d="M6.25 6.7V8H0.83V1H6.12V2.3H2.44V3.82H5.69V5.08H2.44V6.7H6.25ZM15.409 8L15.399 3.8L13.339 7.26H12.609L10.559 3.89V8H9.03898V1H10.379L12.999 5.35L15.579 1H16.909L16.929 8H15.409ZM25.5098 6.7V8H20.0898V1H25.3798V2.3H21.6998V3.82H24.9498V5.08H21.6998V6.7H25.5098ZM28.2988 1H29.9188V6.68H33.4288V8H28.2988V1ZM35.8339 1H37.4539V8H35.8339V1ZM45.2252 6.5H41.9752L41.3552 8H39.6952L42.8152 1H44.4152L47.5452 8H45.8452L45.2252 6.5ZM44.7152 5.27L43.6052 2.59L42.4952 5.27H44.7152ZM56.1914 1V8H54.8614L51.3714 3.75V8H49.7714V1H51.1114L54.5914 5.25V1H56.1914ZM62.7376 8.12C62.0109 8.12 61.3542 7.96333 60.7676 7.65C60.1876 7.33667 59.7309 6.90667 59.3976 6.36C59.0709 5.80667 58.9076 5.18667 58.9076 4.5C58.9076 3.81333 59.0709 3.19667 59.3976 2.65C59.7309 2.09667 60.1876 1.66333 60.7676 1.35C61.3542 1.03667 62.0109 0.88 62.7376 0.88C63.4642 0.88 64.1176 1.03667 64.6976 1.35C65.2776 1.66333 65.7342 2.09667 66.0676 2.65C66.4009 3.19667 66.5676 3.81333 66.5676 4.5C66.5676 5.18667 66.4009 5.80667 66.0676 6.36C65.7342 6.90667 65.2776 7.33667 64.6976 7.65C64.1176 7.96333 63.4642 8.12 62.7376 8.12ZM62.7376 6.74C63.1509 6.74 63.5242 6.64667 63.8576 6.46C64.1909 6.26667 64.4509 6 64.6376 5.66C64.8309 5.32 64.9276 4.93333 64.9276 4.5C64.9276 4.06667 64.8309 3.68 64.6376 3.34C64.4509 3 64.1909 2.73667 63.8576 2.55C63.5242 2.35667 63.1509 2.26 62.7376 2.26C62.3242 2.26 61.9509 2.35667 61.6176 2.55C61.2842 2.73667 61.0209 3 60.8276 3.34C60.6409 3.68 60.5476 4.06667 60.5476 4.5C60.5476 4.93333 60.6409 5.32 60.8276 5.66C61.0209 6 61.2842 6.26667 61.6176 6.46C61.9509 6.64667 62.3242 6.74 62.7376 6.74ZM75.7807 1L72.7507 8H71.1507L68.1307 1H69.8807L72.0107 6L74.1707 1H75.7807ZM4.22 24.12C3.49333 24.12 2.83667 23.9633 2.25 23.65C1.67 23.3367 1.21333 22.9067 0.88 22.36C0.553333 21.8067 0.39 21.1867 0.39 20.5C0.39 19.8133 0.553333 19.1967 0.88 18.65C1.21333 18.0967 1.67 17.6633 2.25 17.35C2.83667 17.0367 3.49333 16.88 4.22 16.88C4.94667 16.88 5.6 17.0367 6.18 17.35C6.76 17.6633 7.21667 18.0967 7.55 18.65C7.88333 19.1967 8.05 19.8133 8.05 20.5C8.05 21.1867 7.88333 21.8067 7.55 22.36C7.21667 22.9067 6.76 23.3367 6.18 23.65C5.6 23.9633 4.94667 24.12 4.22 24.12ZM4.22 22.74C4.63333 22.74 5.00667 22.6467 5.34 22.46C5.67333 22.2667 5.93333 22 6.12 21.66C6.31333 21.32 6.41 20.9333 6.41 20.5C6.41 20.0667 6.31333 19.68 6.12 19.34C5.93333 19 5.67333 18.7367 5.34 18.55C5.00667 18.3567 4.63333 18.26 4.22 18.26C3.80667 18.26 3.43333 18.3567 3.1 18.55C2.76667 18.7367 2.50333 19 2.31 19.34C2.12333 19.68 2.03 20.0667 2.03 20.5C2.03 20.9333 2.12333 21.32 2.31 21.66C2.50333 22 2.76667 22.2667 3.1 22.46C3.43333 22.6467 3.80667 22.74 4.22 22.74ZM13.0675 24.12C12.5142 24.12 11.9775 24.0467 11.4575 23.9C10.9442 23.7467 10.5308 23.55 10.2175 23.31L10.7675 22.09C11.0675 22.31 11.4242 22.4867 11.8375 22.62C12.2508 22.7533 12.6642 22.82 13.0775 22.82C13.5375 22.82 13.8775 22.7533 14.0975 22.62C14.3175 22.48 14.4275 22.2967 14.4275 22.07C14.4275 21.9033 14.3608 21.7667 14.2275 21.66C14.1008 21.5467 13.9342 21.4567 13.7275 21.39C13.5275 21.3233 13.2542 21.25 12.9075 21.17C12.3742 21.0433 11.9375 20.9167 11.5975 20.79C11.2575 20.6633 10.9642 20.46 10.7175 20.18C10.4775 19.9 10.3575 19.5267 10.3575 19.06C10.3575 18.6533 10.4675 18.2867 10.6875 17.96C10.9075 17.6267 11.2375 17.3633 11.6775 17.17C12.1242 16.9767 12.6675 16.88 13.3075 16.88C13.7542 16.88 14.1908 16.9333 14.6175 17.04C15.0442 17.1467 15.4175 17.3 15.7375 17.5L15.2375 18.73C14.5908 18.3633 13.9442 18.18 13.2975 18.18C12.8442 18.18 12.5075 18.2533 12.2875 18.4C12.0742 18.5467 11.9675 18.74 11.9675 18.98C11.9675 19.22 12.0908 19.4 12.3375 19.52C12.5908 19.6333 12.9742 19.7467 13.4875 19.86C14.0208 19.9867 14.4575 20.1133 14.7975 20.24C15.1375 20.3667 15.4275 20.5667 15.6675 20.84C15.9142 21.1133 16.0375 21.4833 16.0375 21.95C16.0375 22.35 15.9242 22.7167 15.6975 23.05C15.4775 23.3767 15.1442 23.6367 14.6975 23.83C14.2508 24.0233 13.7075 24.12 13.0675 24.12ZM23.2545 22.5H20.0045L19.3845 24H17.7245L20.8445 17H22.4445L25.5745 24H23.8745L23.2545 22.5ZM22.7445 21.27L21.6345 18.59L20.5245 21.27H22.7445ZM27.8007 17H30.9807C31.7407 17 32.4107 17.1467 32.9907 17.44C33.5774 17.7267 34.0307 18.1333 34.3507 18.66C34.6774 19.1867 34.8407 19.8 34.8407 20.5C34.8407 21.2 34.6774 21.8133 34.3507 22.34C34.0307 22.8667 33.5774 23.2767 32.9907 23.57C32.4107 23.8567 31.7407 24 30.9807 24H27.8007V17ZM30.9007 22.67C31.6007 22.67 32.1574 22.4767 32.5707 22.09C32.9907 21.6967 33.2007 21.1667 33.2007 20.5C33.2007 19.8333 32.9907 19.3067 32.5707 18.92C32.1574 18.5267 31.6007 18.33 30.9007 18.33H29.4207V22.67H30.9007ZM40.9124 24.12C40.1991 24.12 39.5524 23.9667 38.9724 23.66C38.3991 23.3467 37.9458 22.9167 37.6124 22.37C37.2858 21.8167 37.1224 21.1933 37.1224 20.5C37.1224 19.8067 37.2858 19.1867 37.6124 18.64C37.9458 18.0867 38.3991 17.6567 38.9724 17.35C39.5524 17.0367 40.2024 16.88 40.9224 16.88C41.5291 16.88 42.0758 16.9867 42.5624 17.2C43.0558 17.4133 43.4691 17.72 43.8024 18.12L42.7624 19.08C42.2891 18.5333 41.7024 18.26 41.0024 18.26C40.5691 18.26 40.1824 18.3567 39.8424 18.55C39.5024 18.7367 39.2358 19 39.0424 19.34C38.8558 19.68 38.7624 20.0667 38.7624 20.5C38.7624 20.9333 38.8558 21.32 39.0424 21.66C39.2358 22 39.5024 22.2667 39.8424 22.46C40.1824 22.6467 40.5691 22.74 41.0024 22.74C41.7024 22.74 42.2891 22.4633 42.7624 21.91L43.8024 22.87C43.4691 23.2767 43.0558 23.5867 42.5624 23.8C42.0691 24.0133 41.5191 24.12 40.9124 24.12ZM52.8164 17V24H51.1964V21.13H48.0164V24H46.3964V17H48.0164V19.76H51.1964V17H52.8164ZM59.3326 21.52V24H57.7126V21.5L55.0026 17H56.7226L58.5926 20.11L60.4626 17H62.0526L59.3326 21.52ZM64.162 17H65.782V24H64.162V17Z" fill="white"/>
</svg>
